<?xml version="1.0" encoding="UTF-8" standalone="no"?>
<graphml xmlns="http://graphml.graphdrawing.org/xmlns" xmlns:xsi="http://www.w3.org/2001/XMLSchema-instance" xmlns:y="http://www.yworks.com/xml/graphml" xmlns:yed="http://www.yworks.com/xml/yed/3" xsi:schemaLocation="http://graphml.graphdrawing.org/xmlns http://www.yworks.com/xml/schema/graphml/1.1/ygraphml.xsd">
  <!--Created by yEd 3.13-->
  <key attr.name="Description" attr.type="string" for="graph" id="d0"/>
  <key for="port" id="d1" yfiles.type="portgraphics"/>
  <key for="port" id="d2" yfiles.type="portgeometry"/>
  <key for="port" id="d3" yfiles.type="portuserdata"/>
  <key attr.name="url" attr.type="string" for="node" id="d4"/>
  <key attr.name="description" attr.type="string" for="node" id="d5"/>
  <key for="node" id="d6" yfiles.type="nodegraphics"/>
  <key for="graphml" id="d7" yfiles.type="resources"/>
  <key attr.name="url" attr.type="string" for="edge" id="d8"/>
  <key attr.name="description" attr.type="string" for="edge" id="d9"/>
  <key for="edge" id="d10" yfiles.type="edgegraphics"/>
  <graph edgedefault="directed" id="G">
    <data key="d0"/>
    <node id="n0" yfiles.foldertype="group">
      <data key="d5"/>
      <data key="d6">
        <y:TableNode configuration="com.yworks.bpmn.Pool">
          <y:Geometry height="238.0" width="872.5" x="30.5" y="73.5"/>
          <y:Fill color="#FFF2BC" color2="#D4D4D4CC" transparent="false"/>
          <y:BorderStyle color="#000000" type="line" width="1.0"/>
          <y:NodeLabel alignment="center" autoSizePolicy="content" fontFamily="Dialog" fontSize="15" fontStyle="plain" hasBackgroundColor="false" hasLineColor="false" height="21.4609375" modelName="internal" modelPosition="l" rotationAngle="270.0" textColor="#000000" visible="true" width="129.3173828125" x="4.0" y="54.34130859375">Software Público</y:NodeLabel>
          <y:NodeLabel alignment="center" autoSizePolicy="content" fontFamily="Dialog" fontSize="12" fontStyle="plain" hasBackgroundColor="false" hasLineColor="false" height="17.96875" modelName="custom" rotationAngle="270.0" textColor="#000000" visible="true" width="125.18359375" x="33.0" y="64.908203125">Usuário colaborador<y:LabelModel>
              <y:RowNodeLabelModel offset="3.0"/>
            </y:LabelModel>
            <y:ModelParameter>
              <y:RowNodeLabelModelParameter horizontalPosition="0.0" id="row_0" inside="true"/>
            </y:ModelParameter>
          </y:NodeLabel>
          <y:StyleProperties>
            <y:Property name="y.view.tabular.TableNodePainter.ALTERNATE_ROW_STYLE">
              <y:SimpleStyle fillColor="#474A4340" lineColor="#000000" lineType="line" lineWidth="1.0"/>
            </y:Property>
            <y:Property class="java.awt.Color" name="com.yworks.bpmn.icon.line.color" value="#000000"/>
            <y:Property name="y.view.tabular.TableNodePainter.ALTERNATE_COLUMN_SELECTION_STYLE">
              <y:SimpleStyle fillColor="#474A4380" lineColor="#000000" lineType="line" lineWidth="3.0"/>
            </y:Property>
            <y:Property name="y.view.tabular.TableNodePainter.ALTERNATE_ROW_SELECTION_STYLE">
              <y:SimpleStyle fillColor="#474A4380" lineColor="#000000" lineType="line" lineWidth="3.0"/>
            </y:Property>
            <y:Property class="java.awt.Color" name="POOL_LANE_COLOR_ALTERNATING" value="#ffffff"/>
            <y:Property class="java.awt.Color" name="POOL_LANE_COLOR_MAIN" value="#ffffff"/>
            <y:Property class="java.lang.String" name="POOL_LANE_STYLE" value="LANE_STYLE_COLUMNS"/>
            <y:Property class="java.awt.Color" name="com.yworks.bpmn.icon.fill2" value="#d4d4d4cc"/>
            <y:Property class="java.awt.Color" name="com.yworks.bpmn.icon.fill" value="#ffffffe6"/>
            <y:Property class="com.yworks.yfiles.bpmn.view.BPMNTypeEnum" name="com.yworks.bpmn.type" value="POOL_TYPE_EMPTY"/>
            <y:Property name="y.view.tabular.TableNodePainter.ALTERNATE_COLUMN_STYLE">
              <y:SimpleStyle fillColor="#474A4340" lineColor="#000000" lineType="line" lineWidth="1.0"/>
            </y:Property>
          </y:StyleProperties>
          <y:State autoResize="true" closed="false" closedHeight="80.0" closedWidth="100.0"/>
          <y:Insets bottom="0" bottomF="0.0" left="0" leftF="0.0" right="0" rightF="0.0" top="0" topF="0.0"/>
          <y:BorderInsets bottom="36" bottomF="36.0" left="38" leftF="37.5" right="40" rightF="39.5" top="23" topF="23.0"/>
          <y:Table autoResizeTable="true" defaultColumnWidth="380.0" defaultMinimumColumnWidth="30.0" defaultMinimumRowHeight="30.0" defaultRowHeight="320.0">
            <y:DefaultColumnInsets bottom="3.0" left="3.0" right="3.0" top="20.0"/>
            <y:DefaultRowInsets bottom="3.0" left="20.0" right="3.0" top="3.0"/>
            <y:Insets bottom="0.0" left="30.0" right="0.0" top="0.0"/>
            <y:Columns>
              <y:Column id="column_0" minimumWidth="30.0" width="819.5">
                <y:Insets bottom="3.0" left="3.0" right="3.0" top="20.0"/>
              </y:Column>
            </y:Columns>
            <y:Rows>
              <y:Row height="215.0" id="row_0" minimumHeight="30.0">
                <y:Insets bottom="3.0" left="20.0" right="3.0" top="3.0"/>
              </y:Row>
            </y:Rows>
          </y:Table>
        </y:TableNode>
      </data>
      <graph edgedefault="directed" id="n0:">
        <node id="n0::n0">
          <data key="d5"/>
          <data key="d6">
            <y:GenericNode configuration="com.yworks.bpmn.Event.withShadow">
              <y:Geometry height="30.0" width="30.0" x="118.0" y="129.0"/>
              <y:Fill color="#FFFFFFE6" color2="#D4D4D4CC" transparent="false"/>
              <y:BorderStyle color="#27AE27" type="line" width="1.0"/>
              <y:NodeLabel alignment="center" autoSizePolicy="content" fontFamily="Dialog" fontSize="12" fontStyle="plain" hasBackgroundColor="false" hasLineColor="false" hasText="false" height="4.0" modelName="custom" textColor="#000000" visible="true" width="4.0" x="13.0" y="34.0">
                <y:LabelModel>
                  <y:SmartNodeLabelModel distance="4.0"/>
                </y:LabelModel>
                <y:ModelParameter>
                  <y:SmartNodeLabelModelParameter labelRatioX="0.0" labelRatioY="-0.5" nodeRatioX="0.0" nodeRatioY="0.5" offsetX="0.0" offsetY="4.0" upX="0.0" upY="-1.0"/>
                </y:ModelParameter>
              </y:NodeLabel>
              <y:StyleProperties>
                <y:Property class="com.yworks.yfiles.bpmn.view.EventCharEnum" name="com.yworks.bpmn.characteristic" value="EVENT_CHARACTERISTIC_START"/>
                <y:Property class="java.awt.Color" name="com.yworks.bpmn.icon.line.color" value="#000000"/>
                <y:Property class="java.awt.Color" name="com.yworks.bpmn.icon.fill2" value="#d4d4d4cc"/>
                <y:Property class="java.awt.Color" name="com.yworks.bpmn.icon.fill" value="#ffffffe6"/>
                <y:Property class="com.yworks.yfiles.bpmn.view.BPMNTypeEnum" name="com.yworks.bpmn.type" value="EVENT_TYPE_PLAIN"/>
              </y:StyleProperties>
            </y:GenericNode>
          </data>
        </node>
        <node id="n0::n1">
          <data key="d5"/>
          <data key="d6">
            <y:GenericNode configuration="com.yworks.bpmn.Activity.withShadow">
              <y:Geometry height="55.0" width="85.0" x="205.5" y="116.5"/>
              <y:Fill color="#FFFFFFE6" color2="#D4D4D4CC" transparent="false"/>
              <y:BorderStyle color="#123EA2" type="line" width="1.0"/>
              <y:NodeLabel alignment="center" autoSizePolicy="content" fontFamily="Dialog" fontSize="12" fontStyle="plain" hasBackgroundColor="false" hasLineColor="false" height="31.9375" modelName="custom" textColor="#000000" visible="true" width="59.880859375" x="12.5595703125" y="11.53125">Resolver 
tarefa<y:LabelModel>
                  <y:SmartNodeLabelModel distance="4.0"/>
                </y:LabelModel>
                <y:ModelParameter>
                  <y:SmartNodeLabelModelParameter labelRatioX="0.0" labelRatioY="0.0" nodeRatioX="0.0" nodeRatioY="0.0" offsetX="0.0" offsetY="0.0" upX="0.0" upY="-1.0"/>
                </y:ModelParameter>
              </y:NodeLabel>
              <y:StyleProperties>
                <y:Property class="java.awt.Color" name="com.yworks.bpmn.icon.line.color" value="#000000"/>
                <y:Property class="com.yworks.yfiles.bpmn.view.TaskTypeEnum" name="com.yworks.bpmn.taskType" value="TASK_TYPE_ABSTRACT"/>
                <y:Property class="java.awt.Color" name="com.yworks.bpmn.icon.fill2" value="#d4d4d4cc"/>
                <y:Property class="java.awt.Color" name="com.yworks.bpmn.icon.fill" value="#ffffffe6"/>
                <y:Property class="com.yworks.yfiles.bpmn.view.BPMNTypeEnum" name="com.yworks.bpmn.type" value="ACTIVITY_TYPE"/>
                <y:Property class="com.yworks.yfiles.bpmn.view.ActivityTypeEnum" name="com.yworks.bpmn.activityType" value="ACTIVITY_TYPE_TASK"/>
              </y:StyleProperties>
            </y:GenericNode>
          </data>
        </node>
        <node id="n0::n2">
          <data key="d5"/>
          <data key="d6">
            <y:GenericNode configuration="com.yworks.bpmn.Activity.withShadow">
              <y:Geometry height="55.0" width="85.0" x="348.0" y="116.5"/>
              <y:Fill color="#FFFFFFE6" color2="#D4D4D4CC" transparent="false"/>
              <y:BorderStyle color="#123EA2" type="line" width="1.0"/>
              <y:NodeLabel alignment="center" autoSizePolicy="content" fontFamily="Dialog" fontSize="12" fontStyle="plain" hasBackgroundColor="false" hasLineColor="false" height="45.90625" modelName="custom" textColor="#000000" visible="true" width="97.708984375" x="-6.3544921875" y="4.546875">Envie as 
alterações para
o repositório<y:LabelModel>
                  <y:SmartNodeLabelModel distance="4.0"/>
                </y:LabelModel>
                <y:ModelParameter>
                  <y:SmartNodeLabelModelParameter labelRatioX="0.0" labelRatioY="0.0" nodeRatioX="0.0" nodeRatioY="0.0" offsetX="0.0" offsetY="0.0" upX="0.0" upY="-1.0"/>
                </y:ModelParameter>
              </y:NodeLabel>
              <y:StyleProperties>
                <y:Property class="java.awt.Color" name="com.yworks.bpmn.icon.line.color" value="#000000"/>
                <y:Property class="com.yworks.yfiles.bpmn.view.TaskTypeEnum" name="com.yworks.bpmn.taskType" value="TASK_TYPE_ABSTRACT"/>
                <y:Property class="java.awt.Color" name="com.yworks.bpmn.icon.fill2" value="#d4d4d4cc"/>
                <y:Property class="java.awt.Color" name="com.yworks.bpmn.icon.fill" value="#ffffffe6"/>
                <y:Property class="com.yworks.yfiles.bpmn.view.BPMNTypeEnum" name="com.yworks.bpmn.type" value="ACTIVITY_TYPE"/>
                <y:Property class="com.yworks.yfiles.bpmn.view.ActivityTypeEnum" name="com.yworks.bpmn.activityType" value="ACTIVITY_TYPE_TASK"/>
              </y:StyleProperties>
            </y:GenericNode>
          </data>
        </node>
        <node id="n0::n3">
          <data key="d5"/>
          <data key="d6">
            <y:GenericNode configuration="com.yworks.bpmn.Activity.withShadow">
              <y:Geometry height="55.0" width="85.0" x="490.5" y="116.5"/>
              <y:Fill color="#FFFFFFE6" color2="#D4D4D4CC" transparent="false"/>
              <y:BorderStyle color="#123EA2" type="line" width="1.0"/>
              <y:NodeLabel alignment="center" autoSizePolicy="content" fontFamily="Dialog" fontSize="12" fontStyle="plain" hasBackgroundColor="false" hasLineColor="false" height="45.90625" modelName="custom" textColor="#000000" visible="true" width="87.291015625" x="-1.1455078125" y="4.546875">Entre no 
repositório do
projeto<y:LabelModel>
                  <y:SmartNodeLabelModel distance="4.0"/>
                </y:LabelModel>
                <y:ModelParameter>
                  <y:SmartNodeLabelModelParameter labelRatioX="0.0" labelRatioY="0.0" nodeRatioX="0.0" nodeRatioY="0.0" offsetX="0.0" offsetY="0.0" upX="0.0" upY="-1.0"/>
                </y:ModelParameter>
              </y:NodeLabel>
              <y:StyleProperties>
                <y:Property class="java.awt.Color" name="com.yworks.bpmn.icon.line.color" value="#000000"/>
                <y:Property class="com.yworks.yfiles.bpmn.view.TaskTypeEnum" name="com.yworks.bpmn.taskType" value="TASK_TYPE_ABSTRACT"/>
                <y:Property class="java.awt.Color" name="com.yworks.bpmn.icon.fill2" value="#d4d4d4cc"/>
                <y:Property class="java.awt.Color" name="com.yworks.bpmn.icon.fill" value="#ffffffe6"/>
                <y:Property class="com.yworks.yfiles.bpmn.view.BPMNTypeEnum" name="com.yworks.bpmn.type" value="ACTIVITY_TYPE"/>
                <y:Property class="com.yworks.yfiles.bpmn.view.ActivityTypeEnum" name="com.yworks.bpmn.activityType" value="ACTIVITY_TYPE_TASK"/>
              </y:StyleProperties>
            </y:GenericNode>
          </data>
        </node>
        <node id="n0::n4">
          <data key="d5"/>
          <data key="d6">
            <y:GenericNode configuration="com.yworks.bpmn.Activity.withShadow">
              <y:Geometry height="55.0" width="85.0" x="633.0" y="116.5"/>
              <y:Fill color="#FFFFFFE6" color2="#D4D4D4CC" transparent="false"/>
              <y:BorderStyle color="#123EA2" type="line" width="1.0"/>
              <y:NodeLabel alignment="center" autoSizePolicy="content" fontFamily="Dialog" fontSize="12" fontStyle="plain" hasBackgroundColor="false" hasLineColor="false" height="31.9375" modelName="custom" textColor="#000000" visible="true" width="64.5390625" x="10.23046875" y="11.53125">Clique em
'Issues'<y:LabelModel>
                  <y:SmartNodeLabelModel distance="4.0"/>
                </y:LabelModel>
                <y:ModelParameter>
                  <y:SmartNodeLabelModelParameter labelRatioX="0.0" labelRatioY="0.0" nodeRatioX="0.0" nodeRatioY="0.0" offsetX="0.0" offsetY="0.0" upX="0.0" upY="-1.0"/>
                </y:ModelParameter>
              </y:NodeLabel>
              <y:StyleProperties>
                <y:Property class="java.awt.Color" name="com.yworks.bpmn.icon.line.color" value="#000000"/>
                <y:Property class="com.yworks.yfiles.bpmn.view.TaskTypeEnum" name="com.yworks.bpmn.taskType" value="TASK_TYPE_ABSTRACT"/>
                <y:Property class="java.awt.Color" name="com.yworks.bpmn.icon.fill2" value="#d4d4d4cc"/>
                <y:Property class="java.awt.Color" name="com.yworks.bpmn.icon.fill" value="#ffffffe6"/>
                <y:Property class="com.yworks.yfiles.bpmn.view.BPMNTypeEnum" name="com.yworks.bpmn.type" value="ACTIVITY_TYPE"/>
                <y:Property class="com.yworks.yfiles.bpmn.view.ActivityTypeEnum" name="com.yworks.bpmn.activityType" value="ACTIVITY_TYPE_TASK"/>
              </y:StyleProperties>
            </y:GenericNode>
          </data>
        </node>
        <node id="n0::n5">
          <data key="d5"/>
          <data key="d6">
            <y:GenericNode configuration="com.yworks.bpmn.Activity.withShadow">
              <y:Geometry height="55.0" width="85.0" x="775.5" y="116.5"/>
              <y:Fill color="#FFFFFFE6" color2="#D4D4D4CC" transparent="false"/>
              <y:BorderStyle color="#123EA2" type="line" width="1.0"/>
              <y:NodeLabel alignment="center" autoSizePolicy="content" fontFamily="Dialog" fontSize="12" fontStyle="plain" hasBackgroundColor="false" hasLineColor="false" height="45.90625" modelName="custom" textColor="#000000" visible="true" width="76.9609375" x="4.01953125" y="4.546875">Selecione a 
issue
resolvida<y:LabelModel>
                  <y:SmartNodeLabelModel distance="4.0"/>
                </y:LabelModel>
                <y:ModelParameter>
                  <y:SmartNodeLabelModelParameter labelRatioX="0.0" labelRatioY="0.0" nodeRatioX="0.0" nodeRatioY="0.0" offsetX="0.0" offsetY="0.0" upX="0.0" upY="-1.0"/>
                </y:ModelParameter>
              </y:NodeLabel>
              <y:StyleProperties>
                <y:Property class="java.awt.Color" name="com.yworks.bpmn.icon.line.color" value="#000000"/>
                <y:Property class="com.yworks.yfiles.bpmn.view.TaskTypeEnum" name="com.yworks.bpmn.taskType" value="TASK_TYPE_ABSTRACT"/>
                <y:Property class="java.awt.Color" name="com.yworks.bpmn.icon.fill2" value="#d4d4d4cc"/>
                <y:Property class="java.awt.Color" name="com.yworks.bpmn.icon.fill" value="#ffffffe6"/>
                <y:Property class="com.yworks.yfiles.bpmn.view.BPMNTypeEnum" name="com.yworks.bpmn.type" value="ACTIVITY_TYPE"/>
                <y:Property class="com.yworks.yfiles.bpmn.view.ActivityTypeEnum" name="com.yworks.bpmn.activityType" value="ACTIVITY_TYPE_TASK"/>
              </y:StyleProperties>
            </y:GenericNode>
          </data>
        </node>
        <node id="n0::n6">
          <data key="d5"/>
          <data key="d6">
            <y:GenericNode configuration="com.yworks.bpmn.Activity.withShadow">
              <y:Geometry height="55.0" width="85.0" x="775.5" y="217.5"/>
              <y:Fill color="#FFFFFFE6" color2="#D4D4D4CC" transparent="false"/>
              <y:BorderStyle color="#123EA2" type="line" width="1.0"/>
              <y:NodeLabel alignment="center" autoSizePolicy="content" fontFamily="Dialog" fontSize="12" fontStyle="plain" hasBackgroundColor="false" hasLineColor="false" height="31.9375" modelName="custom" textColor="#000000" visible="true" width="74.59375" x="5.203125" y="11.53125">Clique em 
'Close ssue'<y:LabelModel>
                  <y:SmartNodeLabelModel distance="4.0"/>
                </y:LabelModel>
                <y:ModelParameter>
                  <y:SmartNodeLabelModelParameter labelRatioX="0.0" labelRatioY="0.0" nodeRatioX="0.0" nodeRatioY="0.0" offsetX="0.0" offsetY="0.0" upX="0.0" upY="-1.0"/>
                </y:ModelParameter>
              </y:NodeLabel>
              <y:StyleProperties>
                <y:Property class="java.awt.Color" name="com.yworks.bpmn.icon.line.color" value="#000000"/>
                <y:Property class="com.yworks.yfiles.bpmn.view.TaskTypeEnum" name="com.yworks.bpmn.taskType" value="TASK_TYPE_ABSTRACT"/>
                <y:Property class="java.awt.Color" name="com.yworks.bpmn.icon.fill2" value="#d4d4d4cc"/>
                <y:Property class="java.awt.Color" name="com.yworks.bpmn.icon.fill" value="#ffffffe6"/>
                <y:Property class="com.yworks.yfiles.bpmn.view.BPMNTypeEnum" name="com.yworks.bpmn.type" value="ACTIVITY_TYPE"/>
                <y:Property class="com.yworks.yfiles.bpmn.view.ActivityTypeEnum" name="com.yworks.bpmn.activityType" value="ACTIVITY_TYPE_TASK"/>
              </y:StyleProperties>
            </y:GenericNode>
          </data>
        </node>
        <node id="n0::n7">
          <data key="d5"/>
          <data key="d6">
            <y:GenericNode configuration="com.yworks.bpmn.Event.withShadow">
              <y:Geometry height="30.0" width="30.0" x="688.0" y="230.0"/>
              <y:Fill color="#FFFFFFE6" color2="#D4D4D4CC" transparent="false"/>
              <y:BorderStyle color="#B11F1F" type="line" width="1.0"/>
              <y:NodeLabel alignment="center" autoSizePolicy="content" fontFamily="Dialog" fontSize="12" fontStyle="plain" hasBackgroundColor="false" hasLineColor="false" hasText="false" height="4.0" modelName="custom" textColor="#000000" visible="true" width="4.0" x="13.0" y="34.0">
                <y:LabelModel>
                  <y:SmartNodeLabelModel distance="4.0"/>
                </y:LabelModel>
                <y:ModelParameter>
                  <y:SmartNodeLabelModelParameter labelRatioX="0.0" labelRatioY="-0.5" nodeRatioX="0.0" nodeRatioY="0.5" offsetX="0.0" offsetY="4.0" upX="0.0" upY="-1.0"/>
                </y:ModelParameter>
              </y:NodeLabel>
              <y:StyleProperties>
                <y:Property class="com.yworks.yfiles.bpmn.view.EventCharEnum" name="com.yworks.bpmn.characteristic" value="EVENT_CHARACTERISTIC_END"/>
                <y:Property class="java.awt.Color" name="com.yworks.bpmn.icon.line.color" value="#000000"/>
                <y:Property class="java.awt.Color" name="com.yworks.bpmn.icon.fill2" value="#d4d4d4cc"/>
                <y:Property class="java.awt.Color" name="com.yworks.bpmn.icon.fill" value="#ffffffe6"/>
                <y:Property class="com.yworks.yfiles.bpmn.view.BPMNTypeEnum" name="com.yworks.bpmn.type" value="EVENT_TYPE_PLAIN"/>
              </y:StyleProperties>
            </y:GenericNode>
          </data>
        </node>
      </graph>
    </node>
    <edge id="n0::e0" source="n0::n0" target="n0::n1">
      <data key="d9"/>
      <data key="d10">
        <y:PolyLineEdge>
          <y:Path sx="0.0" sy="0.0" tx="0.0" ty="0.0"/>
          <y:LineStyle color="#000000" type="line" width="1.0"/>
          <y:Arrows source="none" target="standard"/>
          <y:BendStyle smoothed="false"/>
        </y:PolyLineEdge>
      </data>
    </edge>
    <edge id="n0::e1" source="n0::n1" target="n0::n2">
      <data key="d9"/>
      <data key="d10">
        <y:PolyLineEdge>
          <y:Path sx="0.0" sy="0.0" tx="0.0" ty="0.0"/>
          <y:LineStyle color="#000000" type="line" width="1.0"/>
          <y:Arrows source="none" target="standard"/>
          <y:BendStyle smoothed="false"/>
        </y:PolyLineEdge>
      </data>
    </edge>
    <edge id="n0::e2" source="n0::n2" target="n0::n3">
      <data key="d9"/>
      <data key="d10">
        <y:PolyLineEdge>
          <y:Path sx="0.0" sy="0.0" tx="0.0" ty="0.0"/>
          <y:LineStyle color="#000000" type="line" width="1.0"/>
          <y:Arrows source="none" target="standard"/>
          <y:BendStyle smoothed="false"/>
        </y:PolyLineEdge>
      </data>
    </edge>
    <edge id="n0::e3" source="n0::n3" target="n0::n4">
      <data key="d9"/>
      <data key="d10">
        <y:PolyLineEdge>
          <y:Path sx="0.0" sy="0.0" tx="0.0" ty="0.0"/>
          <y:LineStyle color="#000000" type="line" width="1.0"/>
          <y:Arrows source="none" target="standard"/>
          <y:BendStyle smoothed="false"/>
        </y:PolyLineEdge>
      </data>
    </edge>
    <edge id="n0::e4" source="n0::n4" target="n0::n5">
      <data key="d9"/>
      <data key="d10">
        <y:PolyLineEdge>
          <y:Path sx="0.0" sy="0.0" tx="0.0" ty="0.0"/>
          <y:LineStyle color="#000000" type="line" width="1.0"/>
          <y:Arrows source="none" target="standard"/>
          <y:BendStyle smoothed="false"/>
        </y:PolyLineEdge>
      </data>
    </edge>
    <edge id="n0::e5" source="n0::n5" target="n0::n6">
      <data key="d9"/>
      <data key="d10">
        <y:PolyLineEdge>
          <y:Path sx="0.0" sy="0.0" tx="0.0" ty="0.0"/>
          <y:LineStyle color="#000000" type="line" width="1.0"/>
          <y:Arrows source="none" target="standard"/>
          <y:BendStyle smoothed="false"/>
        </y:PolyLineEdge>
      </data>
    </edge>
    <edge id="n0::e6" source="n0::n6" target="n0::n7">
      <data key="d9"/>
      <data key="d10">
        <y:PolyLineEdge>
          <y:Path sx="0.0" sy="0.0" tx="0.0" ty="0.0"/>
          <y:LineStyle color="#000000" type="line" width="1.0"/>
          <y:Arrows source="none" target="standard"/>
          <y:BendStyle smoothed="false"/>
        </y:PolyLineEdge>
      </data>
    </edge>
  </graph>
  <data key="d7">
    <y:Resources/>
  </data>
</graphml>
